%YAML 1.1
%TAG !u! tag:unity3d.com,2011:
--- !u!114 &11400000
MonoBehaviour:
  m_ObjectHideFlags: 0
  m_CorrespondingSourceObject: {fileID: 0}
  m_PrefabInternal: {fileID: 0}
  m_GameObject: {fileID: 0}
  m_Enabled: 1
  m_EditorHideFlags: 0
  m_Script: {fileID: 11500000, guid: 159af9503e82ca64595552b97299003d, type: 3}
  m_Name: Middle Restoration
  m_EditorClassIdentifier: 
  Name: Middle Restoration
  Icon: {fileID: 0}
  Description: Heal all allies.
  IsMagic: 1
  IsRecovery: 1
  Power: 110
  Accuracy: 100
  Cost: 5
  Rating: 0.35
  Targeting: 3
  TargetStatus: 0
  TargetDuration: 2
  TargetPercentage: 50
  UserStatus: 0
  UserDuration: 1
  UserPercentage: 100
