%YAML 1.1
%TAG !u! tag:unity3d.com,2011:
--- !u!114 &11400000
MonoBehaviour:
  m_ObjectHideFlags: 0
  m_CorrespondingSourceObject: {fileID: 0}
  m_PrefabInternal: {fileID: 0}
  m_GameObject: {fileID: 0}
  m_Enabled: 1
  m_EditorHideFlags: 0
  m_Script: {fileID: 11500000, guid: 159af9503e82ca64595552b97299003d, type: 3}
  m_Name: Rage Strike
  m_EditorClassIdentifier: 
  Name: Rage Strike
  Icon: {fileID: 0}
  Description: Deal Physical damage to a foe with a 50% chance to gain [Atk Up] for
    2 turns.
  IsMagic: 0
  IsRecovery: 0
  Power: 70
  Accuracy: 100
  Cost: 3
  Rating: 0.36666667
  Targeting: 0
  TargetStatus: 0
  TargetDuration: 2
  TargetPercentage: 50
  UserStatus: 6
  UserDuration: 2
  UserPercentage: 50
