%YAML 1.1
%TAG !u! tag:unity3d.com,2011:
--- !u!114 &11400000
MonoBehaviour:
  m_ObjectHideFlags: 0
  m_CorrespondingSourceObject: {fileID: 0}
  m_PrefabInternal: {fileID: 0}
  m_GameObject: {fileID: 0}
  m_Enabled: 1
  m_EditorHideFlags: 0
  m_Script: {fileID: 11500000, guid: 159af9503e82ca64595552b97299003d, type: 3}
  m_Name: Provoke
  m_EditorClassIdentifier: 
  Name: Provoke
  Icon: {fileID: 0}
  Description: Inflict [Provoke] on a foe.
  IsMagic: 0
  IsRecovery: 0
  Power: 0
  Accuracy: 0
  Cost: 0
  Rating: 0
  Targeting: 0
  TargetStatus: 2
  TargetDuration: 1
  TargetPercentage: 100
  UserStatus: 0
  UserDuration: 1
  UserPercentage: 100
